{
    "intrinio_proxy":{
        "host": "rtproxy.wtst.io",
        "port": 9000,
        "buffer_size": 65536
    },
    "test_proxy":{
        "host": "10.3.3.151",
        "port": 60015,
        "buffer_size": 65536
    },
    "windows":[
        {
            "resolution(sec)": 1,
            "batch_size(MB)":100,
            "avg_record_len":100
        },
        {
            "resolution(sec)": 10,
            "batch_size(MB)":100
        },
        {
            "resolution(sec)": 10,
            "batch_size(MB)":100
        }
    ],
    "file_destination":"intrinio-slices/data-papeline-aggregator/1.0/",
    "output_stream":{
        "port": 8089,
        "buffer_size":65536
    },

    "logger": "error",
    "app_name": "IntrinioStreamPipe",
    "version": "1.0",
    "ticker_file":"/home/watstock/asen/pipe/tickers.txt",
    "debug":{
        "enable": true,
        "write_raw_file": "/home/watstock/asen/pipe/raw.txt"
    }
}